sim/dump.vcd
$date
   Fri Aug 10 12:36:48 2018
$end
$version
  2018.1
$end
$timescale
  1ps
$end
$scope module hr_pll_example $end
$var wire 1 ! simulation_en $end
$var wire 1 " auto_cfg_en $end
$var wire 1 # reset $end
$var wire 1 $ clk $end
$var wire 1 % clk_90p $end
$var wire 1 & lb_wr $end
$var wire 1 ' lb_rd $end
$var wire 32 ( lb_addr [31:0] $end
$var wire 32 ) lb_wr_d [31:0] $end
$var reg 32 * lb_rd_d [31:0] $end
$var reg 1 + lb_rd_rdy $end
$var wire 32 , sump2_events [31:0] $end
$var wire 8 - dram_dq_in [7:0] $end
$var wire 8 . dram_dq_out [7:0] $end
$var wire 1 / dram_dq_oe_l $end
$var wire 1 0 dram_rwds_in $end
$var wire 1 1 dram_rwds_out $end
$var wire 1 2 dram_rwds_oe_l $end
$var wire 1 3 dram_ck $end
$var wire 1 4 dram_rst_l $end
$var wire 1 5 dram_cs_l $end
$var reg 1 6 hr_rd_req $end
$var reg 1 7 hr_wr_req $end
$var reg 1 8 hr_mem_or_reg $end
$var reg 32 9 hr_addr [31:0] $end
$var reg 6 : hr_rd_num_dwords [5:0] $end
$var reg 32 ; hr_wr_d [31:0] $end
$var wire 32 < hr_rd_d [31:0] $end
$var wire 1 = hr_rd_rdy $end
$var wire 1 > hr_busy $end
$var reg 1 ? hr_busy_p1 $end
$var wire 1 @ hr_burst_wr_rdy $end
$var reg 32 A lb_0010_reg [31:0] $end
$var reg 32 B lb_0014_reg [31:0] $end
$var reg 32 C lb_0018_reg [31:0] $end
$var reg 32 D lb_001c_reg [31:0] $end
$var reg 32 E hr_cfg_dword [31:0] $end
$var reg 15 F rst_cnt [14:0] $end
$var reg 1 G rst_done $end
$var reg 1 H rst_done_p1 $end
$var reg 1 I cfg_busy $end
$var reg 1 J cfg_now $end
$var wire 32 K hr_dflt_timing [31:0] $end
$var wire 8 L cycle_len [7:0] $end
$scope module u_hyper_xface_pll $end
$var wire 1 ! simulation_en $end
$var wire 1 # reset $end
$var wire 1 $ clk $end
$var wire 1 % clk_90p $end
$var wire 1 M rd_req $end
$var wire 1 N wr_req $end
$var wire 1 O mem_or_reg $end
$var wire 6 P rd_num_dwords [5:0] $end
$var wire 32 Q addr [31:0] $end
$var wire 32 R wr_d [31:0] $end
$var reg 32 S rd_d [31:0] $end
$var reg 1 T rd_rdy $end
$var wire 1 > busy $end
$var reg 1 U burst_wr_rdy $end
$var reg 1 V lat_2x $end
$var wire 1 4 dram_rst_l $end
$var wire 1 3 dram_ck $end
$var wire 1 5 dram_cs_l $end
$var wire 8 - dram_dq_in [7:0] $end
$var wire 8 . dram_dq_out [7:0] $end
$var reg 1 W dram_dq_oe_l $end
$var wire 1 0 dram_rwds_in $end
$var reg 1 X dram_rwds_out $end
$var reg 1 Y dram_rwds_oe_l $end
$var reg 8 Z cycle_len [7:0] $end
$var wire 32 , sump_dbg [31:0] $end
$var wire 8 [ latency_1x [7:0] $end
$var wire 8 \ latency_2x [7:0] $end
$var reg 16 ] latency_cfg [15:0] $end
$var reg 48 ^ addr_sr [47:0] $end
$var reg 32 _ data_sr [31:0] $end
$var reg 48 ` rd_sr [47:0] $end
$var reg 6 a fsm_wait [5:0] $end
$var reg 1 b dq_oe_l $end
$var reg 1 c busy_jk $end
$var reg 1 d busy_jk_p1 $end
$var reg 1 e rw_bit $end
$var reg 1 f reg_bit $end
$var reg 1 g byte_wr_en $end
$var reg 1 h cs_loc $end
$var reg 1 i cs_l_reg $end
$var reg 1 j cs_l_reg_p1 $end
$var wire 1 k dram_ck_loc $end
$var reg 1 l dram_ck_en $end
$var reg 1 m rd_done $end
$var reg 6 n rd_dwords_cnt [5:0] $end
$var reg 1 o rd_word_cnt $end
$var reg 8 p dram_dq_out_ris [7:0] $end
$var reg 8 q dram_dq_out_fal [7:0] $end
$var reg 8 r go_sr [7:0] $end
$var reg 8 s data_fsm [7:0] $end
$var reg 16 t dout_word [15:0] $end
$var reg 1 u data_shift_en $end
$var reg 1 v data_shift_abort $end
$var reg 1 w halt_burst $end
$var wire 1 x dram_rwds_in_ris $end
$var wire 1 y dram_rwds_in_fal $end
$var reg 1 z dram_rwds_in_fal_p1 $end
$var reg 1 { dram_rwds_in_ris_p1 $end
$var wire 8 | dram_dq_in_ris [7:0] $end
$var wire 8 } dram_dq_in_fal [7:0] $end
$var reg 8 ~ dram_dq_in_ris_p1 [7:0] $end
$var reg 8 !! dram_dq_in_fal_p1 [7:0] $end
$var reg 1 "! rd_dir_jk $end
$var reg 1 #! rd_dir_jk_p1 $end
$var reg 1 $! rd_dir_jk_p2 $end
$var reg 1 %! rd_dir_jk_p3 $end
$var reg 1 &! rd_dir_jk_p4 $end
$var reg 1 '! ck_div2 $end
$var reg 32 (! sump_loc [31:0] $end
$var reg 32 )! sump_loc_p1 [31:0] $end
$var reg 32 *! sump_loc_p2 [31:0] $end
$var reg 10 +! a_addr [9:0] $end
$var reg 1 ,! a_we $end
$var reg 32 -! a_di [31:0] $end
$var wire 32 .! a_do [31:0] $end
$scope module gen_i2[0].u_xil_iddr $end
$var wire 1 $ clk $end
$var wire 1 /! din $end
$var wire 1 0! dout_ris $end
$var wire 1 1! dout_fal $end
$upscope $end
$scope module gen_i2[1].u_xil_iddr $end
$var wire 1 $ clk $end
$var wire 1 2! din $end
$var wire 1 3! dout_ris $end
$var wire 1 4! dout_fal $end
$upscope $end
$scope module gen_i2[2].u_xil_iddr $end
$var wire 1 $ clk $end
$var wire 1 5! din $end
$var wire 1 6! dout_ris $end
$var wire 1 7! dout_fal $end
$upscope $end
$scope module gen_i2[3].u_xil_iddr $end
$var wire 1 $ clk $end
$var wire 1 8! din $end
$var wire 1 9! dout_ris $end
$var wire 1 :! dout_fal $end
$upscope $end
$scope module gen_i2[4].u_xil_iddr $end
$var wire 1 $ clk $end
$var wire 1 ;! din $end
$var wire 1 <! dout_ris $end
$var wire 1 =! dout_fal $end
$upscope $end
$scope module gen_i2[5].u_xil_iddr $end
$var wire 1 $ clk $end
$var wire 1 >! din $end
$var wire 1 ?! dout_ris $end
$var wire 1 @! dout_fal $end
$upscope $end
$scope module gen_i2[6].u_xil_iddr $end
$var wire 1 $ clk $end
$var wire 1 A! din $end
$var wire 1 B! dout_ris $end
$var wire 1 C! dout_fal $end
$upscope $end
$scope module gen_i2[7].u_xil_iddr $end
$var wire 1 $ clk $end
$var wire 1 D! din $end
$var wire 1 E! dout_ris $end
$var wire 1 F! dout_fal $end
$upscope $end
$scope module u0_xil_iddr $end
$var wire 1 $ clk $end
$var wire 1 0 din $end
$var wire 1 x dout_ris $end
$var wire 1 y dout_fal $end
$upscope $end
$scope module gen_i1[0].u_xil_oddr $end
$var wire 1 $ clk $end
$var wire 1 G! din_ris $end
$var wire 1 H! din_fal $end
$var wire 1 I! dout $end
$upscope $end
$scope module gen_i1[1].u_xil_oddr $end
$var wire 1 $ clk $end
$var wire 1 J! din_ris $end
$var wire 1 K! din_fal $end
$var wire 1 L! dout $end
$upscope $end
$scope module gen_i1[2].u_xil_oddr $end
$var wire 1 $ clk $end
$var wire 1 M! din_ris $end
$var wire 1 N! din_fal $end
$var wire 1 O! dout $end
$upscope $end
$scope module gen_i1[3].u_xil_oddr $end
$var wire 1 $ clk $end
$var wire 1 P! din_ris $end
$var wire 1 Q! din_fal $end
$var wire 1 R! dout $end
$upscope $end
$scope module gen_i1[4].u_xil_oddr $end
$var wire 1 $ clk $end
$var wire 1 S! din_ris $end
$var wire 1 T! din_fal $end
$var wire 1 U! dout $end
$upscope $end
$scope module gen_i1[5].u_xil_oddr $end
$var wire 1 $ clk $end
$var wire 1 V! din_ris $end
$var wire 1 W! din_fal $end
$var wire 1 X! dout $end
$upscope $end
$scope module gen_i1[6].u_xil_oddr $end
$var wire 1 $ clk $end
$var wire 1 Y! din_ris $end
$var wire 1 Z! din_fal $end
$var wire 1 [! dout $end
$upscope $end
$scope module gen_i1[7].u_xil_oddr $end
$var wire 1 $ clk $end
$var wire 1 \! din_ris $end
$var wire 1 ]! din_fal $end
$var wire 1 ^! dout $end
$upscope $end
$scope module u0_xil_oddr $end
$var wire 1 $ clk $end
$var wire 1 _! din_ris $end
$var wire 1 `! din_fal $end
$var wire 1 5 dout $end
$upscope $end
$scope module u1_xil_oddr $end
$var wire 1 k clk $end
$var wire 1 a! din_ris $end
$var wire 1 b! din_fal $end
$var wire 1 3 dout $end
$upscope $end
$upscope $end
$upscope $end
$enddefinitions $end
#0
$dumpvars
1!
bx !!
0"
x"!
1#
x#!
0$
x$!
1%
x%!
0&
x&!
0'
x'!
b0 (
bx (!
b0 )
bx )!
bx *
bx *!
x+
bx +!
bx ,
x,!
b0 -
bx -!
bx .
bx .!
x/
0/!
00
x0!
x1
x1!
x2
02!
x3
x3!
04
x4!
x5
05!
x6
x6!
x7
x7!
x8
08!
bx 9
x9!
bx :
x:!
bx ;
0;!
bx <
x<!
x=
x=!
x>
0>!
x?
x?!
x@
x@!
bx A
0A!
bx B
xB!
bx C
xC!
bx D
0D!
bx E
xE!
bx F
xF!
xG
xG!
xH
xH!
xI
xI!
xJ
xJ!
b10001111111101000000000000000000 K
xK!
bx L
xL!
xM
xM!
xN
xN!
xO
xO!
bx P
xP!
bx Q
xQ!
bx R
xR!
bx S
xS!
xT
xT!
xU
xU!
xV
xV!
xW
xW!
xX
xX!
xY
xY!
bx Z
xZ!
bx [
x[!
bx \
x\!
bx ]
x]!
bx ^
x^!
bx _
x_!
bx `
x`!
bx a
xa!
xb
0b!
xc
xd
xe
xf
xg
xh
xi
xj
1k
xl
xm
bx n
xo
bx p
bx q
bx r
bx s
bx t
xu
xv
xw
xx
xy
xz
x{
bx |
bx }
bx ~
$end
#100
b0 .
00!
01!
03
03!
04!
05
06!
07!
09!
0:!
0<!
0=!
0?!
0@!
0B!
0C!
0E!
0F!
0I!
0L!
0O!
0R!
0U!
0X!
0[!
0^!
0x
0y
b0 |
b0 }
#2000
0%
0k
#5000
b0 !!
0"!
1$
0'!
b0xxxxxxxxxxxxxx (!
b0 *
0+
b0xxxxxxxxxxxxxx ,
0,!
06
07
08
0=
0>
b0 A
b10001111111101000000000000000000 B
b0 C
b0 D
b10001111111101000000000000000000 E
b0 F
0G
1I
0J
b0 L
0M
0N
0O
0T
0V
b0 Z
b111 [
b1010 \
b101000000111 ]
1_!
1`!
b0 a
0c
1g
1i
0m
b0 n
0o
bx0 r
bx s
0u
0v
0w
0z
0{
b0 ~
#7000
1%
1k
#10000
0$
1%
#12000
0%
0k
#15000
0#!
1$
0'!
b0xx00x000000 (!
b0xxxxxxxxxxxxxx )!
01
0?
0@
b0 F
0H
0U
0X
1_!
1`!
0a!
0d
0h
1i
1j
0l
bx00 r
bx0 s
#17000
1%
1k
#20000
0$
1%
#22000
0%
0k
#25000
1$
0$!
0'!
b0xx000000000 (!
b0xx00x000000 )!
b0xxxxxxxxxxxxxx *!
b0xxx0x000000 ,
12
b0 F
1Y
1b
bx000 r
bx00 s
#27000
1%
1k
#30000
0$
1%
#32000
0%
0k
#35000
1$
0%!
0'!
b0 (!
b0xx000000000 )!
b0xx00x000000 *!
b0xx000000000 ,
1/
b0 F
1W
bx0000 r
bx000 s
#37000
1%
1k
#40000
0$
1%
#42000
0%
0k
#45000
1$
0&!
0'!
b0 )!
b0xx000000000 *!
b0 ,
b0 F
bx00000 r
bx0000 s
#47000
1%
1k
#50000
0$
1%
#52000
0%
0k
#55000
1$
0'!
b0 *!
b0 F
bx000000 r
bx00000 s
#57000
1%
1k
#60000
0$
1%
#62000
0%
0k
#65000
1$
0'!
b0 F
bx0000000 r
bx000000 s
#67000
1%
1k
#70000
0$
1%
#72000
0%
0k
#75000
1$
0'!
b0 F
b0 r
bx0000000 s
#77000
1%
1k
#80000
0$
1%
#82000
0%
0k
#85000
1$
0'!
b0 F
b0 s
#87000
1%
1k
#90000
0$
1%
#92000
0%
0k
#95000
1$
0'!
b0 F
#97000
1%
1k
#100000
0#
0$
1%
14
#102000
0%
0k
#105000
1$
1'!
b1 F
#105100
bx .
15
xI!
xL!
xO!
xR!
xU!
xX!
x[!
x^!
#107000
1%
1k
#110000
0$
1%
#112000
0%
0k
#115000
1$
0'!
b1 (!
b10 F
#117000
1%
1k
#120000
0$
1%
#122000
0%
0k
#125000
1$
1&
1'!
b10100 (
b0 (!
b10001111111011000000000000000000 )
b1 )!
b1 ,
b11 F
#127000
1%
1k
#130000
0$
1%
#132000
0%
0k
#135000
1$
1&
0'!
b11100 (
b1 (!
b101 )
b0 )!
b1 *!
b0 ,
b10001111111011000000000000000000 B
b100 F
#137000
1%
1k
#140000
0$
1%
#142000
0%
0k
#145000
1$
0&
1'!
b0 (
b0 (!
b0 )
b1 )!
b0 *!
b1 ,
b101 D
b101 F
#147000
1%
1k
#150000
0$
1%
#152000
0%
0k
#155000
1$
0'!
b1 (!
b0 )!
b1 *!
b0 ,
17
18
b100000000000 9
b10001111111011000000000000000000 ;
b0 D
b10001111111011000000000000000000 E
b110 F
1N
1O
b100000000000 Q
b10001111111011000000000000000000 R
#157000
1%
1k
#160000
0$
1%
#162000
0%
0k
#165000
1$
1'!
b1100 (!
b1 )!
b0 *!
b1 ,
02
07
08
1>
b111 F
0N
0O
0Y
b100 [
b100 \
b10000000100 ]
b11000000000000000000001000000000000000000000000 ^
b10001111111011000000000000000000 _
1c
0e
1f
b1 r
#167000
1%
1k
#170000
0$
1%
#172000
0%
0k
#175000
1$
0'!
b1000100001 (!
b1100 )!
b1 *!
b1100 ,
12
1?
b1000 F
1Y
1d
1h
b10 r
b110000000000000 t
#177000
1%
1k
#180000
0$
1%
#182000
0%
0k
#185000
1$
1'!
b100000 (!
b1000100001 )!
b1100 *!
b1000100001 ,
b1001 F
0G!
0H!
0J!
0K!
0M!
0N!
0P!
0Q!
0S!
0T!
1V!
0W!
1Y!
0Z!
0\!
0]!
0_!
0`!
0b
0i
b1100000 p
b0 q
b100 r
b100000000 t
#187000
1%
1k
#190000
0$
1%
#192000
0%
0k
#195000
1$
0'!
b10100100001 (!
b100000 )!
b1000100001 *!
b100000 ,
0/
b1010 F
1G!
0V!
0W
0Y!
1a!
0j
1l
b1 p
b1000 r
b0 t
#195100
b1100000 .
05
0I!
0L!
0O!
0R!
0U!
1X!
1[!
0^!
#197000
1%
1k
#197100
13
#200000
0$
1%
#200100
b0 .
0X!
0[!
#202000
0%
0k
#202100
03
#205000
1$
1'!
b10100100000 (!
b10100100001 )!
b100000 *!
b10000100001 ,
0>
b1011 F
0G!
b1 L
b1 Z
0c
b0 p
b0 r
b1000111111101100 t
#205100
b1 .
1I!
#207000
1%
1k
#207100
13
#210000
0$
1%
#210100
b0 .
0I!
#212000
0%
0k
#212100
03
#215000
1$
0'!
b10100000001 (!
b10100100000 )!
b10100100001 *!
b10100100000 ,
0?
b1100 F
1G!
1J!
b10 L
1M!
1N!
1P!
1Q!
1W!
b10 Z
1Z!
1\!
1]!
0d
0h
b10001111 p
b11101100 q
#217000
1%
1k
#217100
13
#220000
0$
1%
#222000
0%
0k
#222100
03
#225000
1$
1'!
b10100000000 (!
b10100000001 )!
b10100100000 *!
b10100000001 ,
b1101 F
b11 L
b11 Z
1_!
1`!
1b
1i
#225100
b10001111 .
1I!
1L!
1O!
1R!
1^!
#227000
1%
1k
#227100
13
#230000
0$
1%
#230100
b11101100 .
0I!
0L!
1X!
1[!
#232000
0%
0k
#232100
03
#235000
1$
0'!
b1 (!
b10100000000 )!
b10100000001 *!
b10100000000 ,
1/
b1110 F
1W
0a!
1j
0l
#235100
b10001111 .
15
1I!
1L!
0X!
0[!
#237000
1%
1k
#240000
0$
1%
#240100
b11101100 .
0I!
0L!
1X!
1[!
#242000
0%
0k
#245000
1$
1'!
b0 (!
b1 )!
b10100000000 *!
b100000001 ,
b1111 F
#245100
b10001111 .
1I!
1L!
0X!
0[!
#247000
1%
1k
#250000
0$
1%
#250100
b11101100 .
0I!
0L!
1X!
1[!
#252000
0%
0k
#255000
1$
0'!
b1 (!
b0 )!
b1 *!
b0 ,
b10000 F
#255100
b10001111 .
1I!
1L!
0X!
0[!
#257000
1%
1k
#260000
0$
1%
#260100
b11101100 .
0I!
0L!
1X!
1[!
#262000
0%
0k
#265000
1$
1'!
b0 (!
b1 )!
b0 *!
b1 ,
b10001 F
#265100
b10001111 .
1I!
1L!
0X!
0[!
#267000
1%
1k
#270000
0$
1%
#270100
b11101100 .
0I!
0L!
1X!
1[!
#272000
0%
0k
#275000
1$
0'!
b1 (!
b0 )!
b1 *!
b0 ,
b10010 F
#275100
b10001111 .
1I!
1L!
0X!
0[!
#277000
1%
1k
#280000
0$
1%
#280100
b11101100 .
0I!
0L!
1X!
1[!
#282000
0%
0k
#285000
1$
1'!
b0 (!
b1 )!
b0 *!
b1 ,
b10011 F
#285100
b10001111 .
1I!
1L!
0X!
0[!
#287000
1%
1k
#290000
0$
1%
#290100
b11101100 .
0I!
0L!
1X!
1[!
#292000
0%
0k
#295000
1$
0'!
b1 (!
b0 )!
b1 *!
b0 ,
b10100 F
#295100
b10001111 .
1I!
1L!
0X!
0[!
#297000
1%
1k
#300000
0$
1%
#300100
b11101100 .
0I!
0L!
1X!
1[!
#302000
0%
0k
#305000
1$
1'!
b0 (!
b1 )!
b0 *!
b1 ,
b10101 F
#305100
b10001111 .
1I!
1L!
0X!
0[!
#307000
1%
1k
#310000
0$
1%
#310100
b11101100 .
0I!
0L!
1X!
1[!
#312000
0%
0k
#315000
1$
0'!
b1 (!
b0 )!
b1 *!
b0 ,
b10110 F
#315100
b10001111 .
1I!
1L!
0X!
0[!
#317000
1%
1k
#320000
0$
1%
#320100
b11101100 .
0I!
0L!
1X!
1[!
#322000
0%
0k
#325000
1$
1'!
b0 (!
b1 )!
b0 *!
b1 ,
b10111 F
#325100
b10001111 .
1I!
1L!
0X!
0[!
#327000
1%
1k
#330000
0$
1%
#330100
b11101100 .
0I!
0L!
1X!
1[!
#332000
0%
0k
#335000
1$
0'!
b1 (!
b0 )!
b1 *!
b0 ,
b11000 F
#335100
b10001111 .
1I!
1L!
0X!
0[!
#337000
1%
1k
#340000
0$
1%
#340100
b11101100 .
0I!
0L!
1X!
1[!
#342000
0%
0k
#345000
1$
1&
1'!
b10000 (
b0 (!
b0 )
b1 )!
b0 *!
b1 ,
b11001 F
#345100
b10001111 .
1I!
1L!
0X!
0[!
#347000
1%
1k
#350000
0$
1%
#350100
b11101100 .
0I!
0L!
1X!
1[!
#352000
0%
0k
#355000
1$
1&
0'!
b10100 (
b1 (!
b10001001000100011001101000100 )
b0 )!
b1 *!
b0 ,
b11010 F
#355100
b10001111 .
1I!
1L!
0X!
0[!
#357000
1%
1k
#360000
0$
1%
#360100
b11101100 .
0I!
0L!
1X!
1[!
#362000
0%
0k
#365000
1$
1&
1'!
b11000 (
b0 (!
b1010101011001100111011110001000 )
b1 )!
b0 *!
b1 ,
b10001001000100011001101000100 B
b11011 F
#365100
b10001111 .
1I!
1L!
0X!
0[!
#367000
1%
1k
#370000
0$
1%
#370100
b11101100 .
0I!
0L!
1X!
1[!
#372000
0%
0k
#375000
1$
1&
0'!
b11100 (
b1 (!
b11 )
b0 )!
b1 *!
b0 ,
b1010101011001100111011110001000 C
b11100 F
#375100
b10001111 .
1I!
1L!
0X!
0[!
#377000
1%
1k
#380000
0$
1%
#380100
b11101100 .
0I!
0L!
1X!
1[!
#382000
0%
0k
#385000
1$
0&
1'!
b0 (
b0 (!
b0 )
b1 )!
b0 *!
b1 ,
b11 D
b11101 F
#385100
b10001111 .
1I!
1L!
0X!
0[!
#387000
1%
1k
#390000
0$
1%
#390100
b11101100 .
0I!
0L!
1X!
1[!
#392000
0%
0k
#395000
1$
0'!
b1 (!
b0 )!
b1 *!
b0 ,
17
b0 9
b10001001000100011001101000100 ;
b11110 F
1N
b0 Q
b10001001000100011001101000100 R
#395100
b10001111 .
1I!
1L!
0X!
0[!
#397000
1%
1k
#400000
0$
1%
#400100
b11101100 .
0I!
0L!
1X!
1[!
#402000
0%
0k
#405000
1$
1'!
b100 (!
b1 )!
b0 *!
b0 +!
b1 ,
1,!
b10001001000100011001101000100 -!
02
07
1>
b11111 F
0N
0Y
b1000000000000000000000000000000000000000000000 ^
b10001001000100011001101000100 _
1c
0f
b1 r
#405100
b10001111 .
1I!
1L!
0X!
0[!
#407000
1%
1k
#410000
0$
1%
#410100
b11101100 .
0I!
0L!
1X!
1[!
#412000
0%
0k
#415000
1$
0'!
b1000100001 (!
b100 )!
b1 *!
b100 ,
0,!
b10001001000100011001101000100 .!
12
1?
b100000 F
1Y
1d
1h
b10 r
b10000000000000 t
#415100
b10001111 .
1I!
1L!
0X!
0[!
#417000
1%
1k
#420000
0$
1%
#420100
b11101100 .
0I!
0L!
1X!
1[!
#422000
0%
0k
#425000
1$
1'!
b100000 (!
b1000100001 )!
b100 *!
b1000100001 ,
b100001 F
0G!
0J!
0M!
0N!
0P!
0Q!
1V!
0W!
0Z!
0\!
0]!
0_!
0`!
0b
0i
b100000 p
b0 q
b100 r
b0 t
#425100
b10001111 .
1I!
1L!
0X!
0[!
#427000
1%
1k
#430000
0$
1%
#430100
b11101100 .
0I!
0L!
1X!
1[!
#432000
0%
0k
#435000
1$
0'!
b10100100001 (!
b100000 )!
b1000100001 *!
b100000 ,
0/
b100010 F
b0 L
0V!
0W
b0 Z
b100 a
1a!
0j
1l
b0 p
b1000 r
#435100
b100000 .
05
0O!
0R!
0[!
0^!
#437000
1%
1k
#437100
13
#440000
0$
1%
#440100
b0 .
0X!
#442000
0%
0k
#442100
03
#445000
1$
1'!
b10100100000 (!
b10100100001 )!
b100000 *!
b10000100001 ,
b100011 F
b1 L
b1 Z
b11 a
b10000 r
#447000
1%
1k
#447100
13
#450000
0$
1%
#452000
0%
0k
#452100
03
#455000
1$
0'!
b10100100001 (!
b10100100000 )!
b10100100001 *!
b10100100000 ,
b100100 F
b10 L
b10 Z
b10 a
b100000 r
1u
#457000
1%
1k
#457100
13
#460000
0$
1%
#462000
0%
0k
#462100
03
#465000
1$
1'!
b1010100100000 (!
b10100100001 )!
b10100100000 *!
b10100100001 ,
b100101 F
b11 L
0U
1V
b11 Z
b100 a
b1000000 r
b1 s
b1000100100010 t
0u
1v
#467000
1%
1k
#467100
13
#470000
0$
1%
#472000
0%
0k
#472100
03
#475000
1$
0'!
b10010110100001 (!
b1010100100000 )!
b10100100001 *!
b1010100100000 ,
02
b100110 F
1G!
1K!
b100 L
1S!
0V
1W!
0Y
b100 Z
b11 a
b10001 p
b100010 q
b10000000 r
b0 s
b11001101000100 t
0v
#477000
1%
1k
#477100
13
#480000
0$
1%
#482000
0%
0k
#482100
03
#485000
1$
1'!
b11100100000 (!
b10010110100001 )!
b1010100100000 *!
b10010110100001 ,
b100111 F
1J!
0K!
b101 L
1N!
1V!
0W!
b101 Z
1Z!
b10 a
b110011 p
b1000100 q
b0 r
1u
#485100
b10001 .
1I!
1U!
#487000
1%
1k
#487100
13
#490000
0$
1%
#490100
b100010 .
0I!
1L!
0U!
1X!
#492000
0%
0k
#492100
03
#495000
1$
0'!
b1011100100001 (!
b11100100000 )!
b10010110100001 *!
b11100100000 ,
1@
b101000 F
b110 L
1U
b110 Z
b1 a
b1 s
b1000100100010 t
0u
#495100
b110011 .
1I!
1U!
#497000
1%
1k
#497100
13
#500000
0$
1%
#500100
b1000100 .
0I!
0L!
1O!
0U!
0X!
1[!
#502000
0%
0k
#502100
03
#505000
1$
1'!
b11101100000 (!
b1011100100001 )!
b11100100000 *!
b1011100100001 ,
17
b1010101011001100111011110001000 ;
0@
b0 D
b101001 F
0J!
1K!
b111 L
1N
0N!
b1010101011001100111011110001000 R
0U
0V!
1W!
b111 Z
0Z!
b0 a
b10001 p
b100010 q
b10 s
b11001101000100 t
#505100
b110011 .
1I!
1L!
0O!
1U!
1X!
0[!
#507000
1%
1k
#507100
13
#510000
0$
1%
#510100
b1000100 .
0I!
0L!
1O!
0U!
0X!
1[!
#512000
0%
0k
#512100
03
#515000
1$
0'!
b11100100101 (!
b11101100000 )!
b1011100100001 *!
b1 +!
b11101100000 ,
1,!
b1010101011001100111011110001000 -!
bx .!
07
1@
b101010 F
1J!
0K!
b1000 L
0N
1N!
1U
1V!
0W!
b1000 Z
1Z!
b1010101011001100111011110001000 _
b110011 p
b1000100 q
b101 s
b101010101100110 t
#515100
b10001 .
1I!
0O!
1U!
0[!
#517000
1%
1k
#517100
13
#520000
0$
1%
#520100
b100010 .
0I!
1L!
0U!
1X!
#522000
0%
0k
#522100
03
#525000
1$
1'!
b11101100000 (!
b11100100101 )!
b11101100000 *!
b11100100101 ,
0,!
b1010101011001100111011110001000 .!
0@
b101011 F
0J!
1K!
b1001 L
1M!
0U
0V!
1W!
1Y!
b1001 Z
b1010101 p
b1100110 q
b1010 s
b111011110001000 t
#525100
b110011 .
1I!
1U!
#527000
1%
1k
#527100
13
#530000
0$
1%
#530100
b1000100 .
0I!
0L!
1O!
0U!
0X!
1[!
#532000
0%
0k
#532100
03
#535000
1$
0'!
b11100100001 (!
b11101100000 )!
b11100100101 *!
b11101100000 ,
0>
b101100 F
1J!
0K!
b1010 L
0N!
1Q!
1V!
0W!
b1010 Z
0Z!
1]!
0c
b1110111 p
b10001000 q
b10100 s
1w
#535100
b1010101 .
1I!
1U!
#537000
1%
1k
#537100
13
#540000
0$
1%
#540100
b1100110 .
0I!
1L!
0U!
1X!
#542000
0%
0k
#542100
03
#545000
1$
1'!
b11100000000 (!
b11100100001 )!
b11101100000 *!
b11100100001 ,
0?
b101101 F
b1011 L
b1011 Z
1_!
1`!
1b
0d
0h
1i
b101000 s
0w
#545100
b1110111 .
1I!
1U!
#547000
1%
1k
#547100
13
#550000
0$
1%
#550100
b10001000 .
0I!
0L!
0O!
1R!
0U!
0X!
0[!
1^!
#552000
0%
0k
#552100
03
#555000
1$
0'!
b1000000001 (!
b11100000000 )!
b11100100001 *!
b11100000000 ,
1/
12
b101110 F
1W
1Y
0a!
1j
0l
b1010000 s
#555100
b1110111 .
15
1I!
1L!
1O!
0R!
1U!
1X!
1[!
0^!
#557000
1%
1k
#560000
0$
1%
#560100
b10001000 .
0I!
0L!
0O!
1R!
0U!
0X!
0[!
1^!
#562000
0%
0k
#565000
1$
1'!
b0 (!
b1000000001 )!
b11100000000 *!
b1100000001 ,
b101111 F
b10100000 s
#565100
b1110111 .
1I!
1L!
1O!
0R!
1U!
1X!
1[!
0^!
#567000
1%
1k
#570000
0$
1%
#570100
b10001000 .
0I!
0L!
0O!
1R!
0U!
0X!
0[!
1^!
#572000
0%
0k
#575000
1$
0'!
b1 (!
b0 )!
b1000000001 *!
b0 ,
b110000 F
b1000000 s
#575100
b1110111 .
1I!
1L!
1O!
0R!
1U!
1X!
1[!
0^!
#577000
1%
1k
#580000
0$
1%
#580100
b10001000 .
0I!
0L!
0O!
1R!
0U!
0X!
0[!
1^!
#582000
0%
0k
#585000
1$
1&
1'!
b11100 (
b0 (!
b100 )
b1 )!
b0 *!
b1 ,
b110001 F
b10000000 s
#585100
b1110111 .
1I!
1L!
1O!
0R!
1U!
1X!
1[!
0^!
#587000
1%
1k
#590000
0$
1%
#590100
b10001000 .
0I!
0L!
0O!
1R!
0U!
0X!
0[!
1^!
#592000
0%
0k
#595000
1$
0&
0'!
b0 (
b1 (!
b0 )
b0 )!
b1 *!
b0 ,
b100 D
b110010 F
b0 s
#595100
b1110111 .
1I!
1L!
1O!
0R!
1U!
1X!
1[!
0^!
#597000
1%
1k
#600000
0$
1%
#600100
b10001000 .
0I!
0L!
0O!
1R!
0U!
0X!
0[!
1^!
#602000
0%
0k
#605000
1$
1'!
b0 (!
b1 )!
b0 *!
b1 ,
16
b10 :
b110011 F
1M
b10 P
#605100
b1110111 .
1I!
1L!
1O!
0R!
1U!
1X!
1[!
0^!
#607000
1%
1k
#610000
0$
1%
#610100
b10001000 .
0I!
0L!
0O!
1R!
0U!
0X!
0[!
1^!
#612000
0%
0k
#615000
1$
0'!
b11 (!
b0 )!
b1 *!
b0 +!
b0 ,
b10001001000100011001101000100 .!
02
06
1>
b110100 F
0M
0Y
b101000000000000000000000000000000000000000000000 ^
1c
1e
b10 n
b1 r
#615100
b1110111 .
1I!
1L!
1O!
0R!
1U!
1X!
1[!
0^!
#617000
1%
1k
#620000
0$
1%
#620100
b10001000 .
0I!
0L!
0O!
1R!
0U!
0X!
0[!
1^!
#622000
0%
0k
#625000
1$
1'!
b1000100000 (!
b11 )!
b0 *!
b11 ,
12
1?
b110101 F
1Y
1d
1h
b10 r
b1010000000000000 t
#625100
b1110111 .
1I!
1L!
1O!
0R!
1U!
1X!
1[!
0^!
#627000
1%
1k
#630000
0$
1%
#630100
b10001000 .
0I!
0L!
0O!
1R!
0U!
0X!
0[!
1^!
#632000
0%
0k
#635000
1$
0'!
b100001 (!
b1000100000 )!
b11 *!
b1000100000 ,
b110110 F
0G!
0J!
0M!
0Q!
0S!
0Y!
1\!
0]!
0_!
0`!
0b
0i
b10100000 p
b0 q
b100 r
b0 t
#635100
b1110111 .
1I!
1L!
1O!
0R!
1U!
1X!
1[!
0^!
#637000
1%
1k
#640000
0$
1%
#640100
b10001000 .
0I!
0L!
0O!
1R!
0U!
0X!
0[!
1^!
#642000
0%
0k
#645000
1$
1'!
b10100100000 (!
b100001 )!
b1000100000 *!
b100001 ,
0/
b110111 F
b0 L
0V!
0W
b0 Z
0\!
b111111 a
1a!
0j
1l
b0 p
b1000 r
#645100
b10100000 .
05
0R!
1X!
#647000
1%
1k
#647100
13
#650000
0$
1%
#650100
b0 .
0X!
0^!
#652000
0%
0k
#652100
03
